{
  "images" : [
    {
      "idiom" : "universal",
      "filename" : "favicon-32x32.png",
      "scale" : "1x"
    },
    {
      "idiom" : "universal",
      "filename" : "apple-touch-icon-60x60.png",
      "scale" : "2x"
    },
    {
      "idiom" : "universal",
      "filename" : "apple-touch-icon-76x76.png",
      "scale" : "3x"
    }
  ],
  "info" : {
    "version" : 1,
    "author" : "xcode"
  }
}